library=
name=Policy
NSS=flags=policyOnly,moduleDB
config="disallow=ALL allow=HMAC-SHA256:HMAC-SHA1:HMAC-SHA384:HMAC-SHA512:CURVE25519:SECP256R1:SECP384R1:SECP521R1:aes256-gcm:chacha20-poly1305:aes256-cbc:aes128-gcm:aes128-cbc:SHA256:SHA384:SHA512:SHA224:SHA1:ECDHE-RSA:ECDHE-ECDSA:RSA:DHE-RSA:ECDSA:RSA-PSS:RSA-PKCS:tls-version-min=tls1.0:dtls-version-min=dtls1.0:DH-MIN=1023:DSA-MIN=2048:RSA-MIN=2048"


