CipherString = @SECLEVEL=2:kGOST:-kPSK:-kDHEPSK:-kECDHEPSK:-kRSAPSK:-kEECDH:-kRSA:-aRSA:-aDSS:-AES256:-AES128:-CHACHA20:-SHA256:-3DES:!DES:!RC4:!RC2:!IDEA:-SEED:!eNULL:!aNULL:-AESCCM:-SHA1:!MD5:-SHA384:-CAMELLIA:-ARIA:-AESCCM8
Ciphersuites = GOST2012-GOST8912-GOST8912
TLS.MinProtocol = TLSv1
TLS.MaxProtocol = TLSv1.3
SignatureAlgorithms = 

[openssl_init]
alg_section = evp_properties

[evp_properties]
rh-allow-sha1-signatures = yes
